<svg version="1.1" id="Layer_1" xmlns="http://www.w3.org/2000/svg" xmlns:xlink="http://www.w3.org/1999/xlink" x="0px" y="0px"
	 viewBox="0 0 90 90" style="enable-background:new 0 0 90 90;" xml:space="preserve">
<style type="text/css">
	.st0{fill:#010101;}
	.st1{fill:#F2706C;}
	.st2{fill:#FFFFFF;}
	.st3{fill:#010101;stroke:#010101;stroke-width:2;stroke-miterlimit:10;}
	.st4{fill:#FFFFFF;stroke:#FFFFFF;stroke-width:0.8328;stroke-miterlimit:10;}
</style>
<g>
	<g>
		<path class="st2" d="M45,63.71c-5.76,0-10.45-4.7-10.45-10.47S39.23,42.78,45,42.78c5.76,0,10.45,4.7,10.45,10.47
			S50.76,63.71,45,63.71z M45,49.59c-2,0-3.63,1.64-3.63,3.65c0,2.01,1.63,3.65,3.63,3.65c2.01,0,3.64-1.64,3.64-3.65
			C48.63,51.23,47,49.59,45,49.59z"/>
	</g>
	<g>
		<path class="st2" d="M63.69,26.9h-6.82C56.87,20.34,51.54,15,45,15s-11.87,5.34-11.87,11.9h-6.82c0-10.32,8.38-18.72,18.69-18.72
			S63.69,16.58,63.69,26.9z"/>
	</g>
	<g>
		<rect x="41.59" y="60.3" class="st2" width="6.82" height="10.1"/>
	</g>
	<g>
		<polygon class="st2" points="74.8,81.82 57.21,81.82 57.21,75 67.98,75 67.98,39.38 57.21,39.38 57.21,32.57 74.8,32.57 		"/>
	</g>
	<g>
		<polygon class="st2" points="32.79,81.82 15.2,81.82 15.2,32.57 32.79,32.57 32.79,39.38 22.02,39.38 22.02,75 32.79,75 		"/>
	</g>
</g>
</svg>
